^D:\OPENGL-2NDBATCH\GROUPLEADERASSIGNMENTOCT2018\BASICPREMITIVESHAPES\SHAPES.CPP
D:\OPENGL-2NDBATCH\GROUPLEADERASSIGNMENTOCT2018\BASICPREMITIVESHAPES\DEBUG\VC140.PDB
D:\OPENGL-2NDBATCH\GROUPLEADERASSIGNMENTOCT2018\BASICPREMITIVESHAPES\DEBUG\VC140.IDB
D:\OPENGL-2NDBATCH\GROUPLEADERASSIGNMENTOCT2018\BASICPREMITIVESHAPES\DEBUG\SHAPES.OBJ
